practica_2/codigo_P2/microc.vcd
$date
	Thu Dec  1 19:16:05 2022
$end
$version
	Icarus Verilog
$end
$timescale
	10ps
$end
$scope module microc_tb $end
$var wire 1 ! test_zero $end
$var wire 1 " test_carry $end
$var wire 6 # test_Opcode [5:0] $end
$var reg 3 $ test_ALUOp [2:0] $end
$var reg 1 % test_clk $end
$var reg 1 & test_reset $end
$var reg 1 ' test_s_inc $end
$var reg 1 ( test_s_inm $end
$var reg 1 ) test_s_skip $end
$var reg 1 * test_we $end
$scope module t_microc $end
$var wire 3 + ALUOp [2:0] $end
$var wire 1 % clk $end
$var wire 1 & reset $end
$var wire 1 ' s_inc $end
$var wire 1 ( s_inm $end
$var wire 1 ) s_skip $end
$var wire 1 * we $end
$var wire 1 ! zero $end
$var wire 10 , new_pc [9:0] $end
$var wire 10 - mux_a_sum [9:0] $end
$var wire 10 . mux_a_mux [9:0] $end
$var wire 16 / instruccion [15:0] $end
$var wire 10 0 current_pc [9:0] $end
$var wire 1 " carry $end
$var wire 8 1 alu_a_mux [7:0] $end
$var wire 8 2 WD3 [7:0] $end
$var wire 8 3 RD2 [7:0] $end
$var wire 8 4 RD1 [7:0] $end
$var wire 6 5 Opcode [5:0] $end
$scope module ALU $end
$var wire 3 6 Op [2:0] $end
$var wire 8 7 B [7:0] $end
$var wire 8 8 A [7:0] $end
$var reg 8 9 S [7:0] $end
$var reg 1 " carry $end
$var reg 1 ! zero $end
$upscope $end
$scope module BancoRegistros $end
$var wire 4 : RA1 [3:0] $end
$var wire 4 ; RA2 [3:0] $end
$var wire 4 < WA3 [3:0] $end
$var wire 1 % clk $end
$var wire 1 * we3 $end
$var wire 8 = WD3 [7:0] $end
$var wire 8 > RD2 [7:0] $end
$var wire 8 ? RD1 [7:0] $end
$upscope $end
$scope module MemoriaProg $end
$var wire 16 @ Datum [15:0] $end
$var wire 1 % clk $end
$var wire 10 A Address [9:0] $end
$upscope $end
$scope module MuxALU $end
$var wire 8 B D0 [7:0] $end
$var wire 8 C D1 [7:0] $end
$var wire 1 ( s $end
$var wire 8 D Y [7:0] $end
$upscope $end
$scope module MuxSumador $end
$var wire 10 E D0 [9:0] $end
$var wire 1 ' s $end
$var wire 10 F Y [9:0] $end
$var wire 10 G D1 [9:0] $end
$upscope $end
$scope module MuxSumador2 $end
$var wire 10 H D0 [9:0] $end
$var wire 10 I D1 [9:0] $end
$var wire 1 ) s $end
$var wire 10 J Y [9:0] $end
$upscope $end
$scope module PC $end
$var wire 1 % clk $end
$var wire 1 & reset $end
$var wire 10 K D [9:0] $end
$var reg 10 L Q [9:0] $end
$upscope $end
$scope module Sumador $end
$var wire 10 M A [9:0] $end
$var wire 10 N B [9:0] $end
$var wire 10 O Y [9:0] $end
$upscope $end
$upscope $end
$upscope $end
$enddefinitions $end
#0
$dumpvars
bx O
b0 N
b0xx00xx M
b0 L
bx K
b0xx J
b10 I
b1 H
b0xx G
b0xx00xx F
b110001 E
bx D
b11 C
bx B
b0 A
b110001 @
b0 ?
b0 >
bx =
b1 <
b11 ;
b0 :
bx 9
b0 8
b0 7
bx 6
b0 5
b0 4
b0 3
bx 2
bx 1
b0 0
b110001 /
b0xx .
b0xx00xx -
bx ,
bx +
x*
x)
x(
x'
1&
1%
bx $
b0 #
x"
x!
$end
#1000
0&
#2000
1!
b0 1
b0 9
b0 B
b1 ,
b1 K
b1 O
b1 -
b1 F
b1 M
b1 .
b1 G
b1 J
b11 2
b11 =
b11 D
b0 $
b0 +
b0 6
1*
1'
0)
1(
0%
#4000
b11 3
b11 7
b11 >
b1 2
b1 =
b1 D
b10 <
b1 ;
b1 C
b10010 E
b100 #
b100 5
b10 ,
b10 K
b10 O
b1000000010010 /
b1000000010010 @
b1 0
b1 A
b1 L
b1 N
1%
#6000
0%
#8000
b0 3
b0 7
b0 >
b11 2
b11 =
b11 D
b11 <
b11 ;
b11 C
b110011 E
b0 #
b0 5
b11 ,
b11 K
b11 O
b110011 /
b110011 @
b10 0
b10 A
b10 L
b10 N
1%
#10000
b0 2
b0 =
b0 D
0%
b100 $
b100 +
b100 6
0(
#12000
b0 ;
b0 C
b11 E
b100 #
b100 5
b100 ,
b100 K
b100 O
b1000000000011 /
b1000000000011 @
b11 0
b11 A
b11 L
b11 N
1%
#14000
b110 ,
b110 K
b110 O
b11 -
b11 F
b11 M
0%
b0 $
b0 +
b0 6
0*
0'
#16000
b11 2
b11 =
b11 D
0!
b11 1
b11 9
b11 B
b11 4
b11 8
b11 ?
b100000001 -
b100000001 F
b100000001 M
b1 <
b1 :
b10000 C
b100000001 E
b0 #
b0 5
b100000111 ,
b100000111 K
b100000111 O
b100000001 /
b100000001 @
b110 0
b110 A
b110 L
b110 N
1%
#18000
0"
b1000 ,
b1000 K
b1000 O
b10 -
b10 F
b10 M
b10 .
b10 G
b10 J
0%
b11 $
b11 +
b11 6
1'
1)
#20000
b0 2
b0 =
b0 D
1!
b0 1
b0 9
b0 B
b0 4
b0 8
b0 ?
b1100 <
b1111 ;
b11 :
b111111 C
b1111111100 E
b1010 ,
b1010 K
b1010 O
b1111111100 /
b1111111100 @
b1000 0
b1000 A
b1000 L
b1000 N
1%
#22000
b100 ,
b100 K
b100 O
b1111111100 -
b1111111100 F
b1111111100 M
b1 .
b1 G
b1 J
0%
b0 $
b0 +
b0 6
0'
0)
#24000
b1 3
b1 7
b1 >
b1100100011 -
b1100100011 F
b1100100011 M
b11 <
b10 ;
b110010 C
b1100100011 E
b1100100111 ,
b1100100111 K
b1100100111 O
b1100100011 /
b1100100011 @
b100 0
b100 A
b100 L
b100 N
1%
#26000
b1 2
b1 =
b1 D
0!
b1 1
b1 9
b1 B
b101 ,
b101 K
b101 O
b1 -
b1 F
b1 M
0%
b110 $
b110 +
b110 6
1*
1'
#28000
b10 2
b10 =
b10 D
b10 1
b10 9
b10 B
b11 4
b11 8
b11 ?
b1 <
b1 :
b10010 C
b100100001 E
b100 #
b100 5
b110 ,
b110 K
b110 O
b1000100100001 /
b1000100100001 @
b101 0
b101 A
b101 L
b101 N
1%
#30000
0%
b11 $
b11 +
b11 6
#32000
b0 3
b0 7
b0 >
b10 4
b10 8
b10 ?
b0 ;
b10000 C
b100000001 E
b0 #
b0 5
b111 ,
b111 K
b111 O
b100000001 /
b100000001 @
b110 0
b110 A
b110 L
b110 N
1%
#34000
b1000 ,
b1000 K
b1000 O
b10 -
b10 F
b10 M
b10 .
b10 G
b10 J
0%
0*
1)
#36000
b1 2
b1 =
b1 D
b1 1
b1 9
b1 B
b1 4
b1 8
b1 ?
b1100 <
b1111 ;
b11 :
b111111 C
b1111111100 E
b1010 ,
b1010 K
b1010 O
b1111111100 /
b1111111100 @
b1000 0
b1000 A
b1000 L
b1000 N
1%
#38000
b100 ,
b100 K
b100 O
b1111111100 -
b1111111100 F
b1111111100 M
b1 .
b1 G
b1 J
0%
b0 $
b0 +
b0 6
0'
0)
#40000
b1 3
b1 7
b1 >
b1100100011 -
b1100100011 F
b1100100011 M
b11 <
b10 ;
b110010 C
b1100100011 E
b1100100111 ,
b1100100111 K
b1100100111 O
b1100100011 /
b1100100011 @
b100 0
b100 A
b100 L
b100 N
1%
#42000
b0 2
b0 =
b0 D
1!
b0 1
b0 9
b0 B
b101 ,
b101 K
b101 O
b1 -
b1 F
b1 M
0%
b110 $
b110 +
b110 6
1*
1'
#44000
b11 2
b11 =
b11 D
0!
b11 1
b11 9
b11 B
b10 4
b10 8
b10 ?
b1 <
b1 :
b10010 C
b100100001 E
b100 #
b100 5
b110 ,
b110 K
b110 O
b1000100100001 /
b1000100100001 @
b101 0
b101 A
b101 L
b101 N
1%
#46000
b1 2
b1 =
b1 D
b1 1
b1 9
b1 B
0%
b11 $
b11 +
b11 6
#48000
b0 3
b0 7
b0 >
b1 4
b1 8
b1 ?
b0 ;
b10000 C
b100000001 E
b0 #
b0 5
b111 ,
b111 K
b111 O
b100000001 /
b100000001 @
b110 0
b110 A
b110 L
b110 N
1%
#50000
b1000 ,
b1000 K
b1000 O
b10 -
b10 F
b10 M
b10 .
b10 G
b10 J
0%
0*
1)
#52000
b0 2
b0 =
b0 D
1!
b0 1
b0 9
b0 B
b0 4
b0 8
b0 ?
b1100 <
b1111 ;
b11 :
b111111 C
b1111111100 E
b1010 ,
b1010 K
b1010 O
b1111111100 /
b1111111100 @
b1000 0
b1000 A
b1000 L
b1000 N
1%
#54000
b100 ,
b100 K
b100 O
b1111111100 -
b1111111100 F
b1111111100 M
b1 .
b1 G
b1 J
0%
b0 $
b0 +
b0 6
0'
0)
#56000
b1 3
b1 7
b1 >
b1100100011 -
b1100100011 F
b1100100011 M
b11 <
b10 ;
b110010 C
b1100100011 E
b1100100111 ,
b1100100111 K
b1100100111 O
b1100100011 /
b1100100011 @
b100 0
b100 A
b100 L
b100 N
1%
#58000
b1 2
b1 =
b1 D
0!
b1 1
b1 9
b1 B
b101 ,
b101 K
b101 O
b1 -
b1 F
b1 M
0%
b110 $
b110 +
b110 6
1*
1'
#60000
b0 2
b0 =
b0 D
1!
b0 1
b0 9
b0 B
b1 4
b1 8
b1 ?
b1 <
b1 :
b10010 C
b100100001 E
b100 #
b100 5
b110 ,
b110 K
b110 O
b1000100100001 /
b1000100100001 @
b101 0
b101 A
b101 L
b101 N
1%
#62000
0%
b11 $
b11 +
b11 6
#64000
b0 3
b0 7
b0 >
b0 4
b0 8
b0 ?
b0 ;
b10000 C
b100000001 E
b0 #
b0 5
b111 ,
b111 K
b111 O
b100000001 /
b100000001 @
b110 0
b110 A
b110 L
b110 N
1%
#66000
0%
0*
#68000
b0 <
b0 :
b0 C
b0 E
b100 #
b100 5
b1000 ,
b1000 K
b1000 O
b1000000000000 /
b1000000000000 @
b111 0
b111 A
b111 L
b111 N
1%
#70000
b111 ,
b111 K
b111 O
b0 -
b0 F
b0 M
0%
b0 $
b0 +
b0 6
0'
